{
  "project_info": {
    "project_number": "136968474727",
    "firebase_url": "https://nutriphi-7221f.firebaseio.com",
    "project_id": "nutriphi-7221f",
    "storage_bucket": "nutriphi-7221f.appspot.com"
  },
  "client": [
    {
      "client_info": {
        "mobilesdk_app_id": "1:136968474727:android:2207de2d0bae806cb344c2",
        "android_client_info": {
          "package_name": "com.example.android_development_nutriphi"
        }
      },
      "oauth_client": [
        {
          "client_id": "136968474727-cim574fng00uci02hvbgkisj3tk44oa2.apps.googleusercontent.com",
          "client_type": 1,
          "android_info": {
            "package_name": "com.example.android_development_nutriphi",
            "certificate_hash": "793d584a878c42d6a52c93820ee9b825afe3328a"
          }
        },
        {
          "client_id": "136968474727-od402p7cuqburomvoqm54afjbio62fnn.apps.googleusercontent.com",
          "client_type": 3
        }
      ],
      "api_key": [
        {
          "current_key": "AIzaSyDf0yMgLeVBL4L5bIOHUm-8lyYB1mXWrgA"
        }
      ],
      "services": {
        "appinvite_service": {
          "other_platform_oauth_client": [
            {
              "client_id": "136968474727-od402p7cuqburomvoqm54afjbio62fnn.apps.googleusercontent.com",
              "client_type": 3
            }
          ]
        }
      }
    }
  ],
  "configuration_version": "1"
}